…
So I’ll group by name, and I find that each observation is still unique
and matches the rows, even if the names are shared.

``` r
# See if same name appears with diff IDs
compas %>%
  group_by(name) %>%
  summarise(n_ids = n_distinct(id)) %>%
  filter(n_ids > 1)
```

    ## # A tibble: 55 × 2
    ##    name                 n_ids
    ##    <chr>                <int>
    ##  1 angel santiago           2
    ##  2 anthony gonzalez         2
    ##  3 anthony louis            2
    ##  4 anthony smith            3
    ##  5 brandon whitfield        2
    ##  6 carlos vasquez           2
    ##  7 christopher gonzalez     2
    ##  8 christopher hamilton     2
    ##  9 christopher harris       2
    ## 10 clinton johnson          2
    ## # ℹ 45 more rows
…
